<svg xmlns="http://www.w3.org/2000/svg" width="20" height="20" viewBox="0 0 20 20">
    <path fill="#FFF" fill-rule="evenodd" d="M0 20h9v-6H0v6zM11 6h9V4h-9v2zm0-4h9V0h-9v2zm2 16h5v-8h-5v8zm-2 2h9V8h-9v12zM0 12h9V0H0v12z"/>
</svg>
