<svg xmlns="http://www.w3.org/2000/svg" width="24" height="22" viewBox="0 0 24 22">
    <path fill="none" fill-rule="evenodd" stroke="#FFF" stroke-width="2" d="M3.5 1H4v19.5-.5h4v1h.005v-1H12v1h.005v-1H16v.5-.5h4v.5V1h.5-17zM4 20.5v1-1zM18 19v1H6v-1H4V1h16v18h-2zM12 6h5l-1-1v2l1-1h-5zm0 0H7l1 1V5L7 6h5zm0 4h5l-1-1v2l1-1h-5zm0 0H7l1 1V9l-1 1h5zm-3 4h2l-1-1v2l1-1H9zm0 0H7l1 1v-2l-1 1h2z"/>
</svg>
