<svg xmlns="http://www.w3.org/2000/svg" width="20" height="20" viewBox="0 0 20 20">
    <path fill="#FFF" fill-rule="evenodd" d="M14 11h4V7h-4v4zm-2 4H9.65c-.446-1.722-2.08-3-3.942-3C4.097 12 3 12.958 2 14.331V2h10v13zm-4.487 2a1.99 1.99 0 0 1-1.721 1 1.993 1.993 0 0 1-1.722-1 1.978 1.978 0 0 1-.278-1c0-.366.106-.705.278-1 .347-.595.985-1 1.722-1s1.374.405 1.721 1c.173.295.279.634.279 1s-.106.705-.279 1zm9.078.25c-.26.446-.738.75-1.291.75a1.495 1.495 0 0 1-1.292-.75 1.484 1.484 0 0 1-.208-.75c0-.274.08-.529.208-.75.26-.446.74-.75 1.292-.75.553 0 1.03.304 1.29.75.13.221.21.476.21.75s-.08.529-.21.75zM14 5V0H0v17h1.933a3.991 3.991 0 0 0 3.859 3 3.99 3.99 0 0 0 3.858-3h2.517a3 3 0 1 0 6 0H20V5h-6z"/>
</svg>
